{
  "python.venvPath": "/Users/pierre/Dev/",
  // "python.pythonPath": "/Users/pierre/Dev/py3",
  "editor.fontSize": 12,
  "editor.multiCursorModifier": "ctrlCmd",
  "search.exclude": {
    "**/node_modules": true,
    "**/bower_components": true,
    "**/venv": true
  },
  "path-autocomplete.excludedItems": {
    "**/{.git,node_modules,venv}": { "when": "**" } 
  },
  "terminal.external.osxExec": "iTerm2.app",
  "npm.enableScriptExplorer": true,
  "editor.renderWhitespace": "none",
  "editor.tabSize": 2,
  "gitlens.advanced.messages": {
    "suppressShowKeyBindingsNotice": true
  },
  "gitlens.historyExplorer.enabled": true,
  "gitlens.codeLens.enabled": false,
  "gitlens.mode.statusBar.enabled": false,
  "gitlens.codeLens.recentChange.enabled": false,
  "gitlens.currentLine.enabled": false,
  "gitlens.codeLens.authors.enabled": false,
  "gitlens.hovers.annotations.over": "annotation",
  "window.nativeTabs": true,
  "gitlens.views.fileHistory.enabled": true,
  "gitlens.views.lineHistory.enabled": true,
  "[sql]": {},
  "extensions.ignoreRecommendations": false,
  "terminal.integrated.fontFamily": "Inconsolata for Powerline",
  "terminal.integrated.fontSize": 14,
  "python.insidersChannel": "off",
  "breadcrumbs.enabled": true,
  "editor.minimap.enabled": false
}