{
  "AstroNvim": { "branch": "v4", "commit": "3657f466502d524492b9fed416a18326b179a0c2" },
  "Comment.nvim": { "branch": "master", "commit": "0236521ea582747b58869cb72f70ccfa967d2e89" },
  "LuaSnip": { "branch": "master", "commit": "a7a4b4682c4b3e2ba82b82a4e6e5f5a0e79dec32" },
  "aerial.nvim": { "branch": "master", "commit": "24ebacab5821107c50f628e8e7774f105c08fe9b" },
  "alpha-nvim": { "branch": "main", "commit": "41283fb402713fc8b327e60907f74e46166f4cfd" },
  "astrocommunity": { "branch": "v4", "commit": "f87424b508a06200d667156e7cac4dffbd5c1fae" },
  "astrocore": { "branch": "main", "commit": "c9d24ce03e16dc6b542a2fa3203eec43db2ddd5c" },
  "astrolsp": { "branch": "main", "commit": "cd9b51f260da4e16c723d9461740b605ec045cc2" },
  "astrotheme": { "branch": "main", "commit": "828c89d83e09b395b5d4135036f6406f9cc6844c" },
  "astroui": { "branch": "main", "commit": "d51b2e815164a371ce2dea2b46facdf971f8d5d1" },
  "cmp-buffer": { "branch": "main", "commit": "3022dbc9166796b644a841a02de8dd1cc1d311fa" },
  "cmp-dap": { "branch": "master", "commit": "ea92773e84c0ad3288c3bc5e452ac91559669087" },
  "cmp-nvim-lsp": { "branch": "main", "commit": "5af77f54de1b16c34b23cba810150689a3a90312" },
  "cmp-path": { "branch": "main", "commit": "91ff86cd9c29299a64f968ebb45846c485725f23" },
  "cmp_luasnip": { "branch": "master", "commit": "05a9ab28b53f71d1aece421ef32fee2cb857a843" },
  "dressing.nvim": { "branch": "master", "commit": "18e5beb3845f085b6a33c24112b37988f3f93c06" },
  "friendly-snippets": { "branch": "main", "commit": "dcd4a586439a1c81357d5b9d26319ae218cc9479" },
  "gitsigns.nvim": { "branch": "main", "commit": "70584ff9aae8078b64430c574079d79620b8f06d" },
  "guess-indent.nvim": { "branch": "main", "commit": "b8ae749fce17aa4c267eec80a6984130b94f80b2" },
  "heirline.nvim": { "branch": "master", "commit": "03cff30d7e7d3ba6fdc00925f015822f79cef908" },
  "indent-blankline.nvim": { "branch": "master", "commit": "3d08501caef2329aba5121b753e903904088f7e6" },
  "lazy.nvim": { "branch": "main", "commit": "bef521ac89c8d423f9d092e37b58e8af0c099309" },
  "lsp_signature.nvim": { "branch": "master", "commit": "c6aeb2f1d2538bbdfdaab1664d9d4c3c75aa9db8" },
  "lspkind.nvim": { "branch": "master", "commit": "1735dd5a5054c1fb7feaf8e8658dbab925f4f0cf" },
  "mason-lspconfig.nvim": { "branch": "main", "commit": "9dfcf2036c223920826140f0151d929a43f9eceb" },
  "mason-null-ls.nvim": { "branch": "main", "commit": "e270134d83ba59425edc53356c6fd337b61bb8dd" },
  "mason-nvim-dap.nvim": { "branch": "main", "commit": "67210c0e775adec55de9826b038e8b62de554afc" },
  "mason.nvim": { "branch": "main", "commit": "751b1fcbf3d3b783fcf8d48865264a9bcd8f9b10" },
  "mini.bufremove": { "branch": "main", "commit": "931a3bb514147d9e812767275c4beba6b779b1d3" },
  "neo-tree.nvim": { "branch": "main", "commit": "16d1b194376bf1fc2acd89ccb3c29ba8315bfcea" },
  "neoconf.nvim": { "branch": "main", "commit": "ef304c29977b85c99382fcba821b3f710e144a74" },
  "neodev.nvim": { "branch": "main", "commit": "ce9a2e8eaba5649b553529c5498acb43a6c317cd" },
  "none-ls.nvim": { "branch": "main", "commit": "18910d09d21d7df339805343bfe4a2b2e41c057b" },
  "nui.nvim": { "branch": "main", "commit": "cbd2668414331c10039278f558630ed19b93e69b" },
  "nvim-autopairs": { "branch": "master", "commit": "dbfc1c34bed415906395db8303c71039b3a3ffb4" },
  "nvim-cmp": { "branch": "main", "commit": "97dc716fc914c46577a4f254035ebef1aa72558a" },
  "nvim-colorizer.lua": { "branch": "master", "commit": "85855b38011114929f4058efc97af1059ab3e41d" },
  "nvim-dap": { "branch": "master", "commit": "405df1dcc2e395ab5173a9c3d00e03942c023074" },
  "nvim-dap-ui": { "branch": "master", "commit": "edfa93f60b189e5952c016eee262d0685d838450" },
  "nvim-lspconfig": { "branch": "master", "commit": "6e5c78ebc9936ca74add66bda22c566f951b6ee5" },
  "nvim-nio": { "branch": "master", "commit": "33c62b3eadd8154169e42144de16ba4db6784bec" },
  "nvim-notify": { "branch": "master", "commit": "5371f4bfc1f6d3adf4fe9d62cd3a9d44356bfd15" },
  "nvim-treesitter": { "branch": "master", "commit": "f84887230af1f7581e29ccd5d93f59d98058d565" },
  "nvim-treesitter-textobjects": { "branch": "master", "commit": "d2a4ffc22d9d38d44edb73da007b3cf43451e9b4" },
  "nvim-ts-autotag": { "branch": "main", "commit": "531f48334c422222aebc888fd36e7d109cb354cd" },
  "nvim-ts-context-commentstring": { "branch": "main", "commit": "734ebad31c81c6198dfe102aa23280937c937c42" },
  "nvim-ufo": { "branch": "main", "commit": "458aa4451b98614cfab6b3d7beddc8caff5e3052" },
  "nvim-web-devicons": { "branch": "master", "commit": "3ee60deaa539360518eaab93a6c701fe9f4d82ef" },
  "nvim-window-picker": { "branch": "main", "commit": "41cfaa428577c53552200a404ae9b3a0b5719706" },
  "plenary.nvim": { "branch": "master", "commit": "8aad4396840be7fc42896e3011751b7609ca4119" },
  "presence.nvim": { "branch": "main", "commit": "87c857a56b7703f976d3a5ef15967d80508df6e6" },
  "promise-async": { "branch": "main", "commit": "93540c168c5ed2b030ec3e6c40ab8bbb85e36355" },
  "resession.nvim": { "branch": "master", "commit": "742aba4998123fc11f490a3aeffe8f550b2cb789" },
  "smart-splits.nvim": { "branch": "master", "commit": "50f52146e4504a3fc0f0d5830c8560a16a95dd08" },
  "telescope-fzf-native.nvim": { "branch": "main", "commit": "9ef21b2e6bb6ebeaf349a0781745549bbb870d27" },
  "telescope.nvim": { "branch": "master", "commit": "b22e6f6896cd64b109bd0807a24098d225d5fb49" },
  "todo-comments.nvim": { "branch": "main", "commit": "a7e39ae9e74f2c8c6dc4eea6d40c3971ae84752d" },
  "toggleterm.nvim": { "branch": "main", "commit": "193786e0371e3286d3bc9aa0079da1cd41beaa62" },
  "vim-illuminate": { "branch": "master", "commit": "305bf07b919ac526deb5193280379e2f8b599926" },
  "which-key.nvim": { "branch": "main", "commit": "4433e5ec9a507e5097571ed55c02ea9658fb268a" }
}